<?xml version="1.0" encoding="utf-8"?>
<!-- Generator: Adobe Illustrator 15.0.0, SVG Export Plug-In . SVG Version: 6.00 Build 0)  -->
<!DOCTYPE svg PUBLIC "-//W3C//DTD SVG 1.1//EN" "http://www.w3.org/Graphics/SVG/1.1/DTD/svg11.dtd">
<svg version="1.1" id="Laag_1" xmlns="http://www.w3.org/2000/svg" xmlns:xlink="http://www.w3.org/1999/xlink" x="0px" y="0px"
	 width="20.367px" height="19px" viewBox="0 0 20.367 19" enable-background="new 0 0 20.367 19" xml:space="preserve">
<path fill="#FFFFFF" d="M11.265,17.419V4.638l3.966,3.966c0.422,0.422,1.106,0.422,1.529,0c0.422-0.423,0.422-1.107-0.001-1.529
	l-5.494-5.494L10.184,0.5L9.102,1.581L3.608,7.075C3.397,7.287,3.292,7.563,3.292,7.84c0,0.276,0.106,0.553,0.316,0.764
	c0.423,0.422,1.107,0.422,1.529,0l3.965-3.966v12.781c0,0.597,0.485,1.081,1.082,1.081C10.781,18.5,11.265,18.016,11.265,17.419z"/>
</svg>
