<?xml version="1.0" encoding="utf-8"?>
<!-- Generator: Adobe Illustrator 15.0.0, SVG Export Plug-In . SVG Version: 6.00 Build 0)  -->
<!DOCTYPE svg PUBLIC "-//W3C//DTD SVG 1.1//EN" "http://www.w3.org/Graphics/SVG/1.1/DTD/svg11.dtd">
<svg version="1.1" id="編集モード" xmlns="http://www.w3.org/2000/svg" xmlns:xlink="http://www.w3.org/1999/xlink" x="0px"
	 y="0px" width="40px" height="39.992px" viewBox="0 0 40 39.992" enable-background="new 0 0 40 39.992" xml:space="preserve">
<path fill="#1F1F1F" d="M0.614,39.151c0.079,0.078,0.179,0.126,0.274,0.182c0.227,0.39,0.631,0.663,1.115,0.663h31.252
	c0.725,0,1.313-0.587,1.313-1.313c0-0.724-0.588-1.313-1.313-1.313H8.25l6.012-2.004c0.014-0.004,0.023-0.017,0.036-0.021
	c0.178-0.066,0.343-0.159,0.477-0.294L35.267,14.56c0.001-0.001,0.001-0.001,0.001-0.004l4.117-4.114
	c0.513-0.513,0.513-1.344,0-1.857L31.183,0.38c-0.513-0.512-1.344-0.513-1.858,0L4.716,24.989c-0.141,0.14-0.235,0.307-0.299,0.483
	c-0.004,0.011-0.014,0.018-0.018,0.031L0.297,37.807C0.14,38.28,0.262,38.8,0.614,39.151 M32.481,13.631L13.846,32.265L7.5,25.918
	L26.134,7.285L32.481,13.631z M11.417,33.547l-7.798,2.6l2.6-7.798L11.417,33.547z M34.338,11.772l-6.345-6.344l2.26-2.261
	l6.345,6.346L34.338,11.772z"/>
</svg>
