<?xml version="1.0" encoding="utf-8"?>
<!-- Generator: Adobe Illustrator 15.0.0, SVG Export Plug-In . SVG Version: 6.00 Build 0)  -->
<!DOCTYPE svg PUBLIC "-//W3C//DTD SVG 1.1//EN" "http://www.w3.org/Graphics/SVG/1.1/DTD/svg11.dtd">
<svg version="1.1" id="編集モード" xmlns="http://www.w3.org/2000/svg" xmlns:xlink="http://www.w3.org/1999/xlink" x="0px"
	 y="0px" width="40px" height="39.992px" viewBox="0 0 40 39.992" enable-background="new 0 0 40 39.992" xml:space="preserve">
<g>
	<path fill="#1F1F1F" d="M38.75,3.121H1.25C0.561,3.121,0,3.681,0,4.371v31.25c0,0.69,0.561,1.25,1.25,1.25h37.5
		c0.691,0,1.25-0.56,1.25-1.25V4.371C40,3.681,39.441,3.121,38.75,3.121z M37.5,5.621v5h-35v-5H37.5z M2.5,34.371v-21.25h35v21.25
		H2.5z"/>
	<path fill="#1F1F1F" d="M6.25,9.371c0.325,0,0.65-0.131,0.881-0.369C7.369,8.771,7.5,8.446,7.5,8.121s-0.131-0.65-0.369-0.888
		c-0.462-0.462-1.3-0.462-1.769,0.006C5.132,7.471,5,7.79,5,8.121c0,0.331,0.132,0.65,0.369,0.888
		C5.601,9.24,5.925,9.371,6.25,9.371z"/>
	<path fill="#1F1F1F" d="M10,9.371c0.325,0,0.65-0.131,0.888-0.369c0.231-0.231,0.362-0.557,0.362-0.881s-0.131-0.65-0.369-0.888
		c-0.462-0.462-1.3-0.462-1.769,0.006C8.882,7.471,8.75,7.796,8.75,8.121s0.132,0.65,0.369,0.888C9.351,9.24,9.675,9.371,10,9.371z"
		/>
	<path fill="#1F1F1F" d="M13.75,9.371c0.332,0,0.65-0.131,0.881-0.369C14.869,8.771,15,8.452,15,8.121
		c0-0.325-0.131-0.65-0.369-0.888c-0.462-0.462-1.3-0.462-1.769,0.006C12.632,7.471,12.5,7.796,12.5,8.121
		c0,0.331,0.132,0.65,0.369,0.881C13.101,9.24,13.425,9.371,13.75,9.371z"/>
	<path fill="#1F1F1F" d="M19.375,15.621H6.25c-0.689,0-1.25,0.56-1.25,1.25s0.561,1.25,1.25,1.25h13.125
		c0.691,0,1.25-0.56,1.25-1.25S20.066,15.621,19.375,15.621z"/>
	<path fill="#1F1F1F" d="M19.375,20.621H6.25c-0.689,0-1.25,0.56-1.25,1.25s0.561,1.25,1.25,1.25h13.125
		c0.691,0,1.25-0.56,1.25-1.25S20.066,20.621,19.375,20.621z"/>
	<path fill="#1F1F1F" d="M19.375,25.621H6.25c-0.689,0-1.25,0.56-1.25,1.25s0.561,1.25,1.25,1.25h13.125
		c0.691,0,1.25-0.56,1.25-1.25S20.066,25.621,19.375,25.621z"/>
	<path fill="#1F1F1F" d="M33.75,15.621h-9.375c-0.689,0-1.25,0.56-1.25,1.25v10c0,0.69,0.561,1.25,1.25,1.25h9.375
		c0.691,0,1.25-0.56,1.25-1.25v-10C35,16.181,34.441,15.621,33.75,15.621z M32.5,25.621h-6.875v-7.5H32.5V25.621z"/>
</g>
</svg>
