<?xml version="1.0" encoding="utf-8"?>
<!-- Generator: Adobe Illustrator 15.0.0, SVG Export Plug-In . SVG Version: 6.00 Build 0)  -->
<!DOCTYPE svg PUBLIC "-//W3C//DTD SVG 1.1//EN" "http://www.w3.org/Graphics/SVG/1.1/DTD/svg11.dtd">
<svg version="1.1" id="編集モード" xmlns="http://www.w3.org/2000/svg" xmlns:xlink="http://www.w3.org/1999/xlink" x="0px"
	 y="0px" width="40px" height="39.992px" viewBox="0 0 40 39.992" enable-background="new 0 0 40 39.992" xml:space="preserve">
<g>
	<path fill="#1F1F1F" d="M38.75,37.496H37.5v-17.5c0-1.379-1.121-2.5-2.5-2.5h-3.75c-1.379,0-2.5,1.121-2.5,2.5v17.5H27.5v-30
		c0-1.379-1.121-2.5-2.5-2.5h-3.75c-1.379,0-2.5,1.121-2.5,2.5v30H17.5v-11.25c0-1.379-1.121-2.5-2.5-2.5h-3.75
		c-1.379,0-2.5,1.121-2.5,2.5v11.25H2.5v-5H5c0.69,0,1.25-0.56,1.25-1.25s-0.56-1.25-1.25-1.25H2.5v-3.75
		c0.69,0,1.25-0.56,1.25-1.25s-0.56-1.25-1.25-1.25v-3.75H5c0.69,0,1.25-0.56,1.25-1.25s-0.56-1.25-1.25-1.25H2.5v-3.75
		c0.69,0,1.25-0.56,1.25-1.25s-0.56-1.25-1.25-1.25v-3.75H5c0.69,0,1.25-0.56,1.25-1.25S5.69,4.996,5,4.996H2.5v-3.75
		c0-0.69-0.56-1.25-1.25-1.25S0,0.556,0,1.246v36.25c0,1.379,1.121,2.5,2.5,2.5h36.25c0.69,0,1.25-0.56,1.25-1.25
		S39.44,37.496,38.75,37.496z M31.25,19.996H35v17.5h-3.75V19.996z M21.25,7.496H25v30h-3.75V7.496z M11.25,26.246H15v11.25h-3.75
		V26.246z"/>
</g>
</svg>
